…
```

## 15.16 分组计算新列
```{r}
library(MASS) # 加载 MASS 是为了使用 cabbages 数据集
library(dplyr)
library(dplyr)

cabbages %>%
    group_by(Cult) %>%
    mutate(DevWt = HeadWt - mean(HeadWt))
#> # A tibble: 60 x 5
#> # Groups:    Cult [2]
#>  Cult  Date HeadWt  VitC  DevWt
#>  <fct> <fct> <dbl> <int>  <dbl>
#> 1 c39    d16     2.5    51 -0.407
#> 2 c39    d16     2.2    55 -0.707
#> 3 c39    d16     3.1    45  0.193
#> 4 c39    d16     4.3    42  1.39
#> 5 c39    d16     2.5    53 -0.407
#> 6 c39    d16     4.3    50  1.39
#> #  ... with 54 more rows
…
# 标准化后
ggplot(cb, aes(x = Cult, y = DevWt)) + 
  geom_boxplot()

```
```{r}
cabbages %>%
    group_by(Cult, Date) %>%
        mutate(
            DevWt = HeadWt - mean(HeadWt), 
            DevVitC = VitC - mean(VitC)
        )
#> # A tibble: 60 x 6
#> # Groups:    Cult, Date [6]
#>   Cult Date HeadWt  VitC DevWt DevVitC
#>  <fct> <fct> <dbl> <int> <dbl>     <dbl>
#> 1 c39    d16     2.5    51 -0.68  0.7
#> 2 c39    d16     2.2    55 -0.98  4.7
#> 3 c39    d16     3.1    45 -0.08 -5.30
#> 4 c39    d16     4.3    42  1.12 -8.30
#> 5 c39    d16     2.5    53 -0.68  2.7
#> 6 c39    d16     4.3    50  1.12 -0.300
#> # ... with 54 more rows
…
