…
# 通过使用 %+% ，绘制与之前相同的图形，只是使用的数据不同
mdeaths_plot %+% 
  mdeaths_new +
  coord_polar() +
  ylim(0, max(mdeaths_mod$deaths))

```

## 8.17 在坐标轴上使用日期
```{r}
economics
#> # A tibble: 574 x 6
#>   date         pce    pop psavert uempmed unemploy
#>   <date>     <dbl>  <int>   <dbl>   <dbl>    <int>
#> 1 1967-07-01  507. 198712    12.5     4.5     2944
#> 2 1967-08-01  510. 198911    12.5     4.7     2945
#> 3 1967-09-01  516. 199113    11.7     4.6     2958
#> 4 1967-10-01  513. 199311    12.5     4.9     3143
#> 5 1967-11-01  518. 199498    12.5     4.7     3066
#> 6 1967-12-01  526. 199657    12.1     4.8     3018
#> # ... with 568 more rows
…
